<svg xmlns="http://www.w3.org/2000/svg" xmlns:xlink="http://www.w3.org/1999/xlink" version="1.1" x="0px" y="0px" width="100px" height="100px" viewBox="0 0 100 100" enable-background="new 0 0 100 100" xml:space="preserve">
<g id="Captions">
</g>
<g id="Your_Icon">
	<path fill="#000000" d="M90.154,70.202c1.703-4.289,2.259-9.097,1.312-13.968c-2.638-13.556-15.769-22.408-29.328-19.771   c-0.61,0.119-1.211,0.26-1.801,0.42c0.183,2.418,0.042,4.876-0.434,7.32c-1.888,9.701-8.809,17.387-17.715,20.547   c0.053,0.346,0.111,0.691,0.178,1.038c2.64,13.56,15.771,22.412,29.326,19.774c5.087-0.99,9.51-3.459,12.916-6.869L100,83.259   L90.154,70.202z M79.085,64.639H63.66v5.973l-8.626-9.596l8.626-9.6v5.974h15.425V64.639z"/>
	<path fill="#000000" d="M57.634,43.763c2.639-13.557-6.215-26.688-19.771-29.325c-1.614-0.314-3.221-0.466-4.806-0.466   c-11.729,0.001-22.199,8.293-24.522,20.235c-0.948,4.871-0.393,9.679,1.311,13.968L0,61.231l15.393-4.564   c3.406,3.41,7.828,5.879,12.916,6.869c1.613,0.313,3.218,0.465,4.803,0.465C44.839,64.001,55.309,55.707,57.634,43.763z    M36.345,48.584V42.61H20.92v-7.249h15.425l0.001-5.973l8.625,9.597L36.345,48.584z"/>
</g>
</svg>